<svg
   xmlns:dc="http://purl.org/dc/elements/1.1/"
   xmlns:cc="http://creativecommons.org/ns#"
   xmlns:rdf="http://www.w3.org/1999/02/22-rdf-syntax-ns#"
   xmlns:svg="http://www.w3.org/2000/svg"
   xmlns="http://www.w3.org/2000/svg"
   xmlns:sodipodi="http://sodipodi.sourceforge.net/DTD/sodipodi-0.dtd"
   xmlns:inkscape="http://www.inkscape.org/namespaces/inkscape"
   xml:space="preserve"
   class="logo-svg"
   width="57.290035"
   height="104.08516"
   version="1.1"
   style="clip-rule:evenodd;fill-rule:evenodd;image-rendering:optimizeQuality;shape-rendering:geometricPrecision;text-rendering:geometricPrecision"
   viewBox="0 0 8247.2749 104.08517"
   id="svg2"
   inkscape:version="0.91 r13725"
   sodipodi:docname="logo_vertical_small.svg"><sodipodi:namedview
     pagecolor="#ffffff"
     bordercolor="#666666"
     borderopacity="1"
     objecttolerance="10"
     gridtolerance="10"
     guidetolerance="10"
     inkscape:pageopacity="0"
     inkscape:pageshadow="2"
     inkscape:window-width="1920"
     inkscape:window-height="1056"
     id="namedview15"
     showgrid="false"
     inkscape:zoom="5.1200001"
     inkscape:cx="-74.532666"
     inkscape:cy="13.816567"
     inkscape:window-x="1366"
     inkscape:window-y="24"
     inkscape:window-maximized="1"
     inkscape:current-layer="svg2"
     fit-margin-top="0"
     fit-margin-left="0"
     fit-margin-right="0"
     fit-margin-bottom="0" /><sodipodi:namedviewf
     pagecolor="#ffffff"
     bordercolor="#666666"
     borderopacity="1"
     objecttolerance="10"
     gridtolerance="10"
     guidetolerance="10"
     inkscape:pageopacity="0"
     inkscape:pageshadow="2"
     inkscape:window-width="1366"
     inkscape:window-height="744"
     id="namedview12"
     showgrid="false"
     inkscape:zoom="0.27905354"
     inkscape:cx="-505.86615"
     inkscape:cy="50.245114"
     inkscape:window-x="0"
     inkscape:window-y="24"
     inkscape:window-maximized="1"
     inkscape:current-layer="svg2"
     fit-margin-top="0"
     fit-margin-left="0"
     fit-margin-right="0"
     fit-margin-bottom="0" /><defs
     id="defs4"><style
       type="text/css"
       id="style6"><![CDATA[
              .fil0 {fill:black}
              ]]></style><clipPath
       clipPathUnits="userSpaceOnUse"
       id="clipPath4155"
       class="water-effect"><path
         class="water-effect"
         style="fill:#0000ff;fill-opacity:1"
         d="m -186784.82,9832.4316 c 4153.84,-344.1589 11297.02,6939.9164 19221.35,1078.0624 4775.54,-3532.6011 9287.03,-5314.7943 18014.38,-1582.0038 3179.35,1359.8458 7182.86,6130.0688 12060.36,2921.8478 4293.84,-2824.3172 11435.43,-6294.0783 15795.44,-2507.2389 6682.85,5804.3129 16051.8,2793.2449 20146.13,1015.5459 9131.48,-3964.7585 5578.58,5986.358 28553.248,-652.662 8053.112,-2327.1183 15650.784,8405.316 22848.578,3793.169 10173.23,-6518.7239 10471.334,-9196.2262 28067.735,-2027.869 5910.87,2407.948 10906.086,-2598.4041 16443.0734,-2387.3283 C 486.89623,9717.3098 7445.9872,14727.024 11197.45,12749.48 21721.496,7201.8405 29461.584,6775.4141 38742.794,11347.01 50084.694,16933.627 59638.125,6616.2523 71923.99,9832.4316 l 0,63643.1724 -258708.81,0 z"
         id="path4157"
         inkscape:connector-curvature="0"
         sodipodi:nodetypes="cssssssssssscccc" /></clipPath></defs><g
     id="whole "
     transform="matrix(0,-0.2083274,0.2083274,0,-3.9973143e-6,7555.6774)"><g
       clip-path="none"
       id="background"><path
         style="fill:#008000;fill-opacity:1"
         d="M 71513.603,19850.291 C 68660.555,25527.481 57998.258,34186.673 40905.781,38658.37 28205.631,38131.22 22380.491,34166.565 15518.452,30720.36 10382.367,27711.142 8518.559,25230.459 8602.9337,22659.124 20097.325,19353.888 55186.537,18607.127 71513.603,19850.291 Z"
         id="backgroundTop"
         inkscape:connector-curvature="0"
         sodipodi:nodetypes="ccccc" /><path
         style="fill:#800080;fill-opacity:1"
         d="M 8602.9337,22659.124 C 8710.3095,19386.827 11972.819,15967.715 15661.479,11125.631 18923.498,8199.291 22100.182,5102.282 25911.044,3273.6271 29189.721,1045.2951 32892.237,936.15421 36536.657,536.53585 41138.659,540.78529 47875.013,1738.7851 55415.137,5839.005 59326.354,7965.8736 66374.208,13772.552 71513.603,19850.291 51111.93,18607.127 29857.432,17648.239 8602.9337,22659.124 Z"
         id="backgroundDown"
         inkscape:connector-curvature="0"
         sodipodi:nodetypes="ccccscc" /></g><g
       sodipodi:insensitive="true"
       transform="translate(-3788,-5845.9526)"
       id="leaf"><path
         style="fill:#000000"
         inkscape:connector-curvature="0"
         id="path10"
         d="m 14729,30343 -1317,-1148 c 565,-132 3138,-945 3478,-945 -68,101 -176,150 -276,231 l -862,758 c -146,121 -408,387 -517,530 -156,204 -362,358 -506,574 z m 2194,1756 c -157,-42 -1100,-839 -1278,-984 -152,-124 -661,-508 -748,-637 78,-117 961,-699 1309,-1055 114,-116 196,-162 304,-269 305,-302 654,-597 852,-972 318,0 567,-67 912,-67 l -633,582 c -72,64 -95,67 -169,135 -891,829 -608,482 -1452,1621 -59,81 -85,122 -110,228 155,-104 237,-249 412,-366 296,-198 711,-432 965,-655 419,-366 1197,-920 1437,-1365 249,-462 132,-178 867,-349 -83,124 -776,677 -992,933 l -1589,1685 c -135,180 -243,326 -383,496 -125,152 -274,342 -379,498 139,-37 655,-460 825,-593 248,-195 274,-180 552,-427 l 1484,-1386 c 50,-49 67,-66 123,-113 410,-351 632,-600 977,-981 77,-85 80,-43 91,-180 175,0 409,-53 574,-67 l -3951,4288 z m 4086,3004 c -440,-233 -1909,-1383 -2465,-1755 l 493,-790 c 821,-1226 1236,-1880 2145,-3021 l 715,-872 c 65,-77 99,-100 159,-179 l 613,-670 c 128,-163 152,-235 434,-241 l -2121,3247 c -256,384 -1162,1740 -1188,2053 l 2127,-2971 c 480,-725 921,-1332 1391,-2086 37,-59 86,-179 121,-217 110,-121 929,-161 1122,-161 l -2118,4162 c -76,179 -147,290 -227,482 l -852,1950 c -169,350 -246,856 -349,1069 z m 2094,1486 -1689,-1182 c -72,-51 -185,-146 -270,-169 31,-116 201,-335 270,-439 436,-653 676,-1176 1025,-1879 284,-574 717,-1415 953,-1984 215,-517 495,-1040 686,-1509 71,-176 132,-334 207,-502 l 461,-1024 c 84,-179 129,-369 214,-529 338,0 583,-68 912,-68 l -573,914 c -296,513 -719,1398 -1003,1967 -86,173 -174,331 -247,496 -78,174 -137,341 -226,517 l -682,1547 c -440,1075 -424,972 -748,2223 -78,300 -134,524 -67,810 l 1018,-2257 c 154,-375 327,-746 483,-1138 86,-218 162,-353 245,-564 217,-549 543,-1178 758,-1708 l 1332,-2752 c 70,-118 116,-118 283,-123 189,-5 222,-33 406,-33 l -1442,3453 c -623,1566 -1313,3082 -1880,4704 l -426,1229 z m 1114,675 c -145,-77 -277,-162 -428,-247 -172,-95 -283,-171 -450,-259 21,-249 1205,-3078 1399,-3564 l 2349,-6025 540,-40 c -96,189 -165,392 -258,592 -272,582 -499,1207 -735,1797 -88,220 -144,397 -227,617 l -1664,5089 -526,2040 z m 2296,1182 1614,-5747 c 262,-933 510,-1984 780,-2900 117,-399 691,-2540 848,-2866 l 540,-41 -702,2243 c -77,278 -170,501 -243,769 -139,507 -342,1060 -453,1506 l -850,3100 c -274,962 -833,2956 -978,3952 -31,212 71,315 -556,-16 z m 6416,2194 c 54,-85 75,-289 92,-380 l 231,-1187 c 209,-1120 391,-2208 455,-3361 42,-770 233,-1912 235,-2634 1,-270 54,-619 68,-878 8,-153 -9,-320 -1,-473 l 135,-3241 c -3,-592 68,-1246 68,-1857 169,-39 360,-34 540,-34 0,206 -33,247 -33,439 0,2299 62,4553 67,6854 l -33,1621 c 1,236 -35,321 -36,538 l -66,1622 c -10,187 16,380 -9,565 l -91,1596 c 3,539 -102,1077 -102,1620 -323,-7 -1581,-476 -1912,-586 -1219,-407 -2506,-858 -3682,-1383 l -1768,-765 c 12,-135 427,-1231 486,-1406 l 1121,-3673 c 79,-279 142,-484 230,-749 l 1047,-3713 c 129,-515 560,-1892 594,-2309 454,0 899,-67 1317,-102 l -451,1305 c -273,924 -548,1847 -785,2794 -124,499 -248,922 -353,1436 -99,479 -222,925 -311,1445 -83,484 -191,1018 -286,1503 -93,474 -363,1821 -410,2257 l -38,874 c 31,-35 8,-6 43,-58 l 127,-212 c 54,-106 88,-175 154,-284 289,-480 478,-1584 574,-2161 89,-540 201,-994 294,-1530 215,-1255 549,-2469 809,-3714 l 545,-2189 c 125,-497 246,-982 358,-1466 176,-14 499,-63 676,-67 0,497 -252,1953 -324,2478 l -487,5861 c 1,277 -35,426 -34,674 3,688 -55,1465 -1,2164 15,202 35,389 35,572 19,-27 17,-16 37,-65 146,-368 238,-1624 291,-2039 l 151,-1469 c 24,-217 46,-486 81,-729 74,-513 61,-988 135,-1520 l 285,-2956 c 15,-248 48,-480 70,-740 54,-638 200,-1653 200,-2265 l 675,-34 c -71,855 -133,1789 -134,2668 0,203 -34,245 -36,437 l -32,880 c 2,207 -31,261 -35,437 l -241,3507 c -86,820 -422,3935 -434,4765 -5,432 -101,863 -101,1317 z m 4491,-14213 c 374,0 618,-34 979,-34 l 34,1655 c -2,227 33,306 35,504 5,391 35,679 32,1049 l 353,6129 c 25,168 14,334 38,502 94,629 187,2708 253,3528 l 302,2939 c -275,-64 -571,-105 -844,-168 0,-361 0,-721 0,-1081 0,-391 -35,-689 -34,-1046 3,-825 -61,-1264 -101,-2060 -48,-985 -188,-1981 -237,-3004 -13,-276 -57,-727 -92,-989 l -181,-1979 c -25,-301 -61,-688 -93,-988 l -309,-3472 c -20,-422 -135,-1138 -135,-1485 z m -777,33 507,0 82,2046 c 45,301 73,1560 125,2035 70,624 74,1364 155,1972 l 77,1003 c 7,486 192,2364 239,2969 l 403,4965 c 3,347 67,661 67,1013 -168,-4 -480,-97 -642,-135 0,-698 0,-1395 0,-2093 0,-732 -31,-1355 -32,-2094 -1,-209 -36,-262 -36,-471 -1,-180 0,-361 1,-542 l -201,-3479 c -14,-182 -31,-351 -35,-504 -27,-847 -252,-3039 -362,-3859 l -227,-1866 c -45,-300 -121,-659 -121,-960 z m -21847,271 c 106,-159 91,-234 341,-105 60,30 30,13 64,37 -105,24 -285,65 -405,68 z m 24414,-372 c 152,-3 134,-34 304,-34 l 540,0 1433,10283 c 229,1658 340,3654 520,5354 l 73,1109 c -303,0 -518,-68 -811,-68 0,-1143 -195,-2248 -268,-3343 -24,-354 -68,-709 -118,-1065 -97,-696 -151,-1369 -227,-2068 -134,-1224 -365,-2840 -540,-4085 l -906,-6083 z m -642,68 c 0,-94 189,-68 304,-68 137,0 94,135 137,437 l 1647,12972 c 41,373 67,694 117,1064 44,324 73,742 115,1067 l 111,1070 c -69,-33 -1280,-236 -1418,-236 0,-850 68,-1668 68,-2532 0,-509 -296,-4556 -367,-5204 -45,-416 -74,-1301 -131,-1726 -45,-338 -71,-1373 -124,-1732 -42,-282 -25,-565 -63,-849 l -270,-3444 c -26,-195 -23,-402 -81,-628 -22,-89 -45,-94 -45,-191 z m 3140,-169 c 225,0 293,-34 507,-34 0,758 952,5114 1236,6360 282,1237 677,2893 928,4137 l 431,2100 c 195,1172 522,2606 682,3775 26,191 66,359 66,576 -186,0 -718,29 -844,0 l -130,-1693 c -23,-207 -29,-405 -40,-602 -9,-167 -50,-381 -64,-544 -18,-218 -41,-391 -64,-577 -46,-377 -104,-752 -138,-1111 -73,-768 -211,-1451 -313,-2186 -98,-707 -231,-1437 -369,-2129 l -405,-2060 c -294,-1473 -813,-3579 -1227,-5019 -53,-185 -82,-276 -129,-478 -38,-167 -99,-301 -127,-515 z m 1284,-34 c 165,44 119,150 135,-34 l 371,0 767,1934 c 310,781 894,2136 1170,2915 126,354 267,670 388,997 l 714,2021 c 155,568 491,1430 668,2066 l 312,1039 c 183,664 1316,4948 1316,5537 -252,6 -858,197 -1114,203 0,-297 -284,-2554 -357,-2952 l -230,-1120 c -291,-1262 -552,-2515 -937,-3756 -105,-340 -192,-698 -303,-1047 l -2900,-7803 z m -304,0 c 12,151 115,355 164,478 l 2001,5392 c 454,1362 713,2270 1091,3603 l 411,1614 c 94,375 158,747 243,1107 309,1312 495,2649 720,3973 29,171 97,390 97,578 -113,3 -172,24 -294,44 l -989,92 c -50,-604 -779,-4444 -892,-4949 -351,-1563 -700,-3287 -1080,-4795 l -1113,-4728 c -55,-188 -96,-343 -143,-532 l -399,-1560 c -81,-314 -177,-317 183,-317 z m 979,-34 878,0 1833,4919 c 369,944 724,2048 1095,2991 281,717 1072,3190 1319,4083 55,196 100,316 157,518 53,187 101,356 150,525 l 599,2103 c 96,388 196,725 283,1100 -276,65 -563,138 -844,203 0,-401 -592,-2804 -729,-3356 -269,-1079 -595,-2134 -913,-3206 -108,-363 -211,-669 -329,-1022 -62,-184 -101,-332 -160,-515 -53,-169 -122,-330 -186,-523 -120,-359 -233,-658 -355,-996 -58,-162 -106,-328 -174,-501 l -579,-1480 c -70,-173 -124,-327 -188,-488 -389,-978 -1004,-2486 -1429,-3398 l -428,-957 z m 30492,-67 c 116,2 132,23 238,32 93,7 207,2 302,2 l -330,345 -210,-379 z m -878,0 c 371,0 411,-68 568,174 77,119 241,338 276,467 -98,66 -45,69 -169,102 -38,-145 -224,-275 -329,-380 -123,-123 -253,-224 -346,-363 z m -24920,-34 c 169,0 338,1 507,1 209,0 261,-35 472,-35 l 1609,3455 c 360,715 650,1494 968,2172 689,1466 1401,3475 1976,5013 237,632 1147,3380 1255,3844 l -946,405 c 0,-188 -61,-403 -93,-549 l -409,-1515 c -56,-167 -94,-315 -152,-489 l -482,-1477 c -101,-344 -226,-609 -337,-946 l -712,-1854 c -569,-1461 -1099,-2657 -1731,-4075 l -1036,-2239 c -256,-511 -675,-1231 -889,-1711 z m -777,34 c 112,-54 245,-34 405,-34 l 788,1812 c 365,730 833,1854 1204,2679 68,152 117,291 192,449 76,164 138,305 204,471 l 767,1867 c 469,1172 1034,2592 1433,3800 105,315 248,634 335,948 97,351 219,636 332,984 l 473,1486 c 52,168 144,336 181,494 -253,59 -653,299 -878,304 0,-213 -463,-1844 -527,-2039 l -287,-995 c -101,-328 -192,-681 -304,-1013 -106,-314 -212,-635 -307,-976 -46,-166 -107,-312 -166,-476 l -835,-2439 c -371,-1116 -1017,-2574 -1476,-3724 l -1534,-3598 z m -32315,-34 c 141,-68 685,194 854,260 121,48 192,52 260,145 -395,0 -681,-143 -1011,-306 -179,-89 -28,-1 -103,-99 z m 57404,0 202,0 684,837 c 237,266 182,391 -157,-46 -183,-235 -655,-680 -729,-791 z m -2398,-34 c 77,-110 86,-67 507,-67 109,0 172,150 244,228 l 1714,1831 c -73,111 -193,196 -303,270 -257,-382 -1265,-1481 -1602,-1741 l -560,-521 z m -20699,0 642,0 c 487,920 1794,4173 2229,5165 l 2436,6174 793,2313 c 52,159 113,347 147,494 -123,65 -327,169 -473,203 -39,-476 -975,-3331 -1182,-3849 l -156,-452 c -62,-172 -124,-303 -177,-464 -585,-1751 -1466,-3646 -2189,-5340 -69,-161 -129,-266 -203,-438 -69,-162 -129,-267 -202,-439 l -1665,-3367 z m 21712,-33 c 163,0 728,24 804,74 72,48 140,168 201,238 l 845,911 c 57,62 168,199 210,262 -110,74 -227,196 -337,270 l -1723,-1755 z m -17795,-34 c 183,0 135,-58 303,237 69,123 125,246 192,382 522,1053 1247,2248 1779,3320 l 1902,3770 c 74,146 117,246 181,392 378,865 665,1549 983,2428 95,263 565,1545 569,1726 -82,22 -142,67 -221,116 -89,54 -134,76 -218,120 -148,-638 -617,-1844 -868,-2474 -60,-150 -98,-263 -159,-415 l -853,-1949 c -63,-127 -109,-241 -165,-375 -312,-751 -887,-1908 -1253,-2698 l -2127,-4456 c -21,-47 -35,-101 -45,-124 z m -675,0 337,0 c 315,655 713,1673 1047,2329 l 879,1958 c 61,138 116,231 183,391 300,722 734,1602 1065,2344 121,272 220,523 350,799 464,994 1706,4017 1913,4907 -107,71 -304,204 -439,236 -85,-363 -560,-1659 -714,-2122 l -1423,-3743 c -337,-847 -1346,-3234 -1724,-3982 l -1474,-3117 z m 1283,-34 979,0 c 30,127 98,231 158,349 l 1553,3207 c 65,127 93,222 157,349 l 856,1812 c 304,633 672,1598 957,2183 118,244 195,510 315,765 286,607 778,1994 1022,2692 43,120 101,293 149,392 l -473,270 c -34,-407 -465,-1649 -642,-2093 l -472,-1216 c -99,-249 -208,-506 -327,-754 l -354,-760 c -309,-765 -1430,-2764 -1897,-3640 -68,-128 -125,-222 -191,-349 -60,-116 -138,-247 -210,-365 l -1536,-2717 c -24,-52 -33,-100 -44,-125 z m 15026,0 c 769,0 414,-16 728,285 78,74 128,86 210,162 256,238 446,481 692,726 l 1376,1460 -330,346 c -283,-519 -1003,-1131 -1315,-1503 l -1361,-1476 z m -13709,-34 473,0 326,687 c 119,238 218,436 338,675 l 865,1700 c 61,140 95,227 159,349 61,117 114,192 180,325 l 507,1047 c 124,248 231,442 340,706 l 796,1736 c 278,558 823,1973 1057,2556 l 564,1495 c -209,111 -287,224 -439,237 -3,-148 -161,-642 -215,-798 -268,-783 -572,-1504 -875,-2265 l -782,-1818 c -60,-153 -94,-235 -165,-375 -302,-593 -634,-1403 -991,-2115 l -2138,-4142 z m 12021,0 912,34 c 126,0 434,420 599,582 l 2507,2760 -398,379 c -227,-416 -866,-1153 -1231,-1518 -213,-214 -480,-499 -706,-679 l -950,-873 c -110,-91 -149,-116 -252,-221 -160,-163 -358,-280 -481,-464 z m -1587,0 c 1508,0 1013,-143 1679,550 l 676,708 c 52,58 96,96 152,152 l 421,423 c 307,368 628,626 810,844 l 1192,1375 c -266,141 -482,474 -723,661 -108,83 -162,153 -256,216 l -2890,-3761 -1061,-1168 z m -4018,-34 c 851,0 708,-195 1445,885 l 952,1412 c 105,159 205,302 306,470 l 2666,4425 c -83,123 -404,347 -541,438 -307,-581 -628,-1161 -985,-1715 -56,-87 -114,-161 -161,-244 -485,-845 -1036,-1604 -1507,-2376 l -1230,-1877 c -197,-296 -821,-1139 -945,-1418 z m -1486,0 1114,0 c 29,107 1394,2177 1547,2404 63,94 94,148 156,249 l 2031,3202 c 208,338 385,657 602,985 69,103 585,914 594,1027 -103,27 -157,82 -236,135 -135,91 -646,428 -777,439 -21,-252 -103,-422 -188,-622 -92,-219 -160,-378 -262,-582 -52,-104 -83,-167 -135,-271 -59,-118 -104,-176 -158,-281 -262,-506 -644,-1112 -931,-1601 l -473,-776 c -69,-105 -107,-158 -172,-267 l -1337,-2039 c -129,-171 -221,-322 -342,-503 l -689,-999 c -62,-91 -106,-149 -170,-234 l -174,-266 z m -1148,0 844,0 c 213,403 1970,3016 2370,3640 l 1000,1600 c 473,785 1151,1908 1537,2751 106,231 182,277 327,551 -156,83 -331,187 -487,290 -128,84 -369,271 -526,284 -32,-381 -861,-2092 -1058,-2487 -462,-923 -1036,-1975 -1582,-2841 -495,-783 -1567,-2580 -2063,-3238 l -362,-550 z m -574,0 236,0 327,552 c 116,220 211,367 334,577 123,208 214,369 338,574 l 2008,3394 c 490,849 1169,2147 1552,3006 92,206 563,1115 574,1249 l -372,203 c -45,-194 -664,-1588 -796,-1905 -234,-564 -692,-1407 -878,-1857 -416,-1007 -1628,-3110 -2241,-4140 l -1082,-1653 z m -42952,-303 c 92,-38 373,118 473,168 348,173 667,268 1013,406 87,34 187,68 274,97 l 266,105 c -384,0 -217,99 -563,-79 l -976,-442 c -132,-54 -419,-163 -487,-255 z m 540,-676 2837,1115 c -41,25 4,5 -70,31 l -243,61 c -657,137 -301,72 -1516,-425 l -1177,-511 c 34,-127 106,-176 169,-271 z m 7058,271 c 61,-129 33,-391 33,-574 17,4 790,365 845,438 -272,23 -600,136 -878,136 z m 50887,-574 481,464 c -217,10 -621,-59 -920,-59 38,-144 354,-383 439,-405 z m -48456,168 72,19 -72,-19 z m 0,0 -68,-33 68,33 z m -68,-33 0,0 z m -101,-68 10,10 c -1,0 -13,-7 -10,-10 z m -203,-135 10,10 c 0,-1 -13,-7 -10,-10 z m -8712,-202 2488,1091 c 146,71 275,117 426,182 125,53 311,151 429,178 -79,109 13,44 -156,80 -279,60 -563,-100 -969,-305 l -1531,-664 c -252,-117 -502,-260 -788,-326 10,-124 48,-136 101,-236 z m 55379,540 c 45,-62 234,-208 308,-266 118,-94 216,-189 328,-279 210,-169 428,-445 613,-569 176,93 398,310 506,472 l -749,637 c -99,91 -54,37 -399,39 -239,1 -351,-34 -607,-34 z M 58457,23489 c 99,27 191,128 279,194 l 903,617 c -451,0 -778,-34 -1216,-34 0,-292 34,-467 34,-777 z m -2566,406 0,270 -473,0 473,-270 z m -32586,-102 c 171,90 345,163 513,264 189,114 1392,651 1513,817 -580,13 -291,245 -1066,-217 -315,-188 -641,-324 -960,-492 l 0,-372 z m 10840,270 c 46,-69 88,-87 157,-146 95,-80 58,-91 180,-124 0,341 8,270 -337,270 z m 15600,-67 -169,0 c 97,-84 154,-173 169,0 z m -25460,-68 10,10 c -1,0 -14,-6 -10,-10 z m -68,-33 0,0 z m -7091,-270 c 1062,561 2345,1033 3473,1490 444,180 478,104 478,400 0,160 -471,166 -541,138 l -1024,-498 c -585,-293 -1567,-700 -2063,-976 l -526,-251 c 76,-113 132,-170 203,-303 z m 24245,-271 1093,528 c 4,3 14,8 21,13 l -1114,0 0,-541 z m -17154,541 -67,-34 67,34 z m 18943,-68 c 4,-3 10,5 11,10 l -11,-10 z m -19010,34 -68,-34 68,34 z m -68,-34 -68,-34 68,34 z m -68,-34 -67,-33 67,33 z m 30762,338 -743,-34 1824,-1114 0,608 c -223,52 -993,540 -1081,540 z m -17727,-1080 1317,641 c 78,35 155,56 246,91 l 166,70 c 44,25 34,19 60,42 -169,0 -235,33 -404,35 l -913,-2 c -202,-1 -288,31 -439,34 0,-338 -33,-559 -33,-911 z m 12764,202 c 0,200 39,270 -104,336 -106,48 -225,51 -358,114 -221,104 -389,259 -687,259 25,-21 8,-11 55,-46 24,-17 35,-25 61,-41 59,-38 92,-54 148,-88 l 885,-534 z m -25866,507 c -118,-28 -249,-94 -360,-147 -188,-89 -277,-35 -282,-259 141,94 564,299 642,406 z m 46160,1012 784,-734 c 104,-106 171,-139 271,-236 182,-175 340,-314 523,-490 141,-136 465,-345 515,-531 147,39 634,529 709,641 l -582,465 c -204,168 -399,303 -614,465 -948,715 -185,452 -1606,420 z m -52508,-1856 428,179 c 163,75 265,151 416,226 l 2150,1058 c 122,57 328,162 450,191 l 0,439 c -183,-43 -655,-293 -917,-401 l -2797,-1220 c 49,-184 221,-289 270,-472 z m 15735,1181 836,-987 c 56,-63 96,-90 148,-156 75,-94 60,-103 164,-173 0,644 71,450 -743,1080 -263,203 -141,236 -405,236 z m 16479,-844 0,0 z m -8476,-506 c 97,51 119,58 212,125 l 1578,955 c -294,-24 -1521,-664 -1790,-844 l 0,-236 z m 17120,-405 c 143,75 251,155 392,249 l 1600,1034 c 514,341 742,427 1183,674 6,4 15,8 21,12 l 79,56 c -238,0 -958,9 -1173,-42 -104,-25 -556,-436 -679,-537 l -1041,-782 c -106,-78 -269,-166 -382,-225 l 0,-439 z m -35185,303 c 180,15 1113,574 1407,721 179,89 318,166 482,260 287,166 1772,916 1859,1045 -248,0 -418,52 -615,65 -158,9 -611,-337 -877,-497 l -865,-520 c -151,-94 -302,-162 -453,-256 -152,-96 -280,-177 -443,-266 -134,-73 -335,-218 -462,-248 0,-166 -16,-170 -33,-304 z m 24413,1317 1669,-1066 c 197,-137 367,-257 560,-386 0,174 0,262 -101,338 -14,11 -115,66 -150,87 l -1585,947 c -144,90 -178,80 -393,80 z M 17801,22645 c 153,36 1034,466 1272,586 l 1722,810 c 229,104 248,66 248,394 -369,-248 -1565,-893 -1992,-1115 -184,-96 -1179,-578 -1250,-675 z m 34848,1418 c 137,-118 1588,-913 1822,-1048 l 1386,-876 0,506 -2376,1407 c -144,78 -443,11 -832,11 z m 15128,574 c 67,-58 130,-115 202,-169 l 2827,-2238 c 133,-112 277,-269 415,-361 75,50 94,83 164,140 l 477,434 c -196,52 -1486,1147 -1808,1399 -518,404 -446,322 -832,755 -148,167 -395,122 -678,83 l -767,-43 z M 38534,22308 c 212,17 628,252 845,270 10,131 30,88 33,236 l -763,-418 c -49,-31 -80,-58 -115,-88 z m 0,0 -67,-34 67,34 z m -67,-34 -68,-34 68,34 z m -20227,-304 c 189,44 493,222 676,304 l 1384,642 c 107,53 229,102 352,154 130,54 242,122 357,149 l 0,574 c -247,-130 -476,-244 -732,-382 -353,-190 -1998,-1089 -2206,-1137 30,-128 104,-206 169,-304 z m 20159,270 0,0 z m -6145,1925 1680,-1865 c 111,-112 460,-552 582,-634 0,709 59,551 -279,903 -67,69 -67,82 -121,149 -119,148 -485,476 -724,762 -630,753 -583,685 -1138,685 z m 4761,-2229 c 206,49 2013,1152 2431,1250 0,226 -9,356 34,540 -192,-45 -445,-171 -619,-259 -216,-108 -404,-185 -619,-292 l -586,-293 c -200,-93 -373,-249 -607,-304 0,-267 -34,-396 -34,-642 z m 9759,1992 c 47,-203 446,-361 762,-554 l 1629,-1039 c 269,-172 542,-388 816,-534 l 0,304 -2294,1454 c -583,348 -361,369 -913,369 z m 5537,-135 0,-439 c 124,-32 327,-179 462,-247 164,-84 305,-173 452,-257 820,-474 1422,-776 2203,-1410 l 429,-314 0,777 c -416,220 -938,469 -1324,702 l -1749,952 c -164,81 -352,208 -473,236 z m -11042,-2093 2572,1587 c 24,740 -44,540 -349,344 l -2189,-1391 c 0,-225 -34,-366 -34,-540 z m -22657,-304 c 147,13 208,77 305,134 93,54 185,94 291,148 108,53 189,89 293,146 l 586,292 c 194,98 766,350 956,394 l 0,439 c -132,-30 -207,-88 -318,-154 l -2248,-1095 c 14,-170 93,-148 135,-304 z m 46801,3140 4105,-2648 c 396,-264 785,-622 893,-694 78,53 169,140 259,213 97,78 182,129 247,226 -114,30 -57,19 -150,86 -66,46 -100,67 -159,111 l -2081,1667 c -398,326 -787,617 -1181,946 -287,239 -288,178 -888,129 -171,-15 -365,10 -537,-4 -170,-14 -288,-32 -508,-32 z M 42553,21194 c 187,43 516,245 676,336 l 708,305 0,270 -723,-425 c -142,-95 -584,-371 -661,-486 z m 0,0 -68,-34 68,34 z m -68,-34 0,0 z m -11143,3072 2390,-2641 c 87,-88 104,-134 184,-220 l 634,-650 c 0,418 53,408 -177,633 l -2044,2177 c -534,528 -354,701 -987,701 z m 11042,-3140 0,0 z m -23435,-135 1612,719 c 723,285 482,206 482,632 l -2195,-1182 c 40,-75 56,-101 101,-169 z m 23435,135 0,0 z m -102,-67 0,0 z m 0,0 0,0 z m -19078,-101 1602,897 c 190,113 356,186 545,298 189,112 346,197 535,310 l 1607,925 -34,1250 c -191,-5 -146,-39 -266,-140 l -2826,-1732 c -183,-111 -339,-179 -533,-277 -178,-91 -367,-237 -562,-282 0,-219 7,-329 -34,-507 169,40 353,192 506,271 178,92 340,186 517,293 l 2306,1307 c 101,61 152,89 261,144 164,81 380,209 597,214 -87,-129 -312,-285 -453,-391 l -722,-528 c -96,-61 -181,-107 -275,-164 l -2445,-1404 c -123,-63 -165,-117 -292,-147 0,-130 6,-248 -34,-337 z m 23671,2397 c 0,-490 31,-337 648,-736 l 882,-536 c 267,-158 1568,-1100 1678,-1125 -182,379 256,252 -358,655 l -1105,684 c -452,269 -1303,824 -1745,1058 z m -9894,-2600 2330,1013 c 0,212 34,304 34,473 -757,-363 -956,-341 -1804,-898 -195,-129 -375,-228 -560,-352 l 0,-236 z m 21476,101 c 113,31 948,628 1134,757 92,63 156,101 244,161 l 466,311 c 167,111 290,210 459,318 93,59 137,81 225,146 82,61 159,110 241,164 l 945,608 c 0,146 -3,295 -1,440 2,169 35,235 35,404 -282,-66 -3200,-2087 -3714,-2431 0,-327 2,-595 -34,-878 z m -17255,-101 1318,910 c 511,304 442,308 1046,609 455,228 342,176 304,642 l -2634,-1587 c 0,-337 -34,-434 -34,-574 z m 23907,3275 0,-743 c 180,-42 406,-203 585,-292 972,-482 1390,-837 2216,-1330 371,-221 938,-648 1300,-929 107,-83 160,-154 255,-217 123,28 409,250 473,337 -97,146 -2289,1515 -2398,1587 -403,270 -1744,1095 -2127,1384 -81,62 -201,175 -304,203 z m -12831,-1047 0,-675 1370,-857 c 607,-406 1397,-916 1968,-1376 77,-62 144,-138 241,-164 l 0,945 -2640,1615 c -170,102 -807,501 -939,512 z M 19287,20485 c 184,15 1561,715 1823,776 l 0,304 -1924,-911 c 65,-98 68,-46 101,-169 z m 27655,2093 c 12,-145 34,-209 34,-405 l 2952,-2079 c 79,-61 120,-104 188,-149 0,849 -13,589 -497,954 -141,107 -268,191 -425,284 -166,98 -289,187 -456,287 l -884,568 c -152,102 -776,508 -912,540 z m -16546,1756 c 37,-136 152,-203 245,-296 l 657,-694 c 63,-74 64,-93 136,-167 l 1300,-1435 c 51,-51 88,-81 136,-135 l 1519,-1756 c 131,-151 76,-112 161,-143 0,685 76,550 -228,853 l -3240,3344 c -624,744 -263,226 -686,429 z m 6585,-4153 1193,563 c 202,102 396,177 611,266 460,192 473,159 492,386 -692,-332 -972,-403 -1779,-855 -304,-170 -485,-173 -517,-360 z m -13811,-68 c 119,28 3324,1882 3760,2116 194,105 376,183 563,281 l 0,608 -1074,-749 c -794,-529 -1459,-908 -2259,-1388 l -885,-500 c -87,-71 -52,-17 -83,-153 -12,-53 -22,-120 -22,-215 z m -3545,-67 c 242,128 497,248 743,371 l 776,372 0,202 c -140,-33 -260,-116 -393,-180 l -1228,-596 c 45,-67 62,-94 102,-169 z m 45450,2464 c -3,-155 -33,-176 -33,-540 l 1790,-1114 c 319,-212 1313,-828 1528,-1037 77,-75 108,-121 193,-178 l 473,405 c -86,128 -776,542 -944,643 l -2498,1519 c -172,103 -326,206 -509,302 z m -6652,-3241 1358,871 c 157,106 291,183 452,291 249,167 1648,1082 1871,1134 0,385 34,652 34,1013 -126,-33 -177,-101 -266,-173 -506,-409 -1740,-1288 -2294,-1657 l -1049,-707 c -57,-46 -101,-24 -107,-331 -3,-145 1,-295 1,-441 z m -37279,979 0,203 -1283,-641 c 49,-185 109,-128 242,-42 128,82 213,98 339,170 219,127 475,201 702,310 z m 2026,-844 c 233,63 3373,1837 4041,2173 123,62 179,88 282,157 l 0,506 c -155,-13 -417,-213 -551,-293 l -3186,-1879 c -182,-89 -404,-250 -586,-292 l 0,-372 z m 13777,-236 c 136,11 997,479 1108,547 194,118 363,170 570,274 203,102 389,166 585,259 l 0,541 c -88,-47 -181,-81 -275,-130 -436,-229 -1823,-840 -1988,-951 l 0,-540 z m 10097,2566 c 0,-467 -89,-430 559,-825 508,-308 1210,-808 1696,-1140 154,-105 725,-534 851,-567 l 0,473 -3106,2059 z m -5943,-2262 c 133,31 1177,714 1418,844 l 1452,844 0,371 -597,-315 c -1043,-556 -1206,-715 -2085,-1291 -281,-183 -78,-205 -188,-453 z m 11177,2397 0,-203 c 319,-214 631,-414 940,-646 316,-237 605,-464 912,-709 l 874,-713 c 96,-85 780,-705 887,-734 l 0,608 -433,310 c -154,106 -279,199 -439,304 l -2269,1479 c -155,103 -318,201 -472,304 z M 20266,19236 c 119,9 565,230 878,303 l 0,338 c -108,-25 -134,-60 -225,-112 -81,-46 -172,-90 -248,-124 -182,-81 -335,-146 -506,-237 40,-75 56,-101 101,-168 z m 44708,2059 -41,-607 c 160,-36 589,-311 752,-404 770,-445 966,-512 1754,-1116 92,-70 221,-205 338,-236 90,60 113,106 194,176 109,95 139,52 177,195 l -821,462 c -137,75 -267,168 -396,245 l -1153,772 c -171,113 -636,474 -804,513 z m -34881,2667 c 0,-568 -96,-331 363,-852 99,-112 202,-193 304,-304 l 590,-659 c 57,-56 99,-93 153,-151 67,-73 71,-97 135,-169 308,-350 906,-953 1171,-1294 134,-173 1587,-1960 1707,-2040 0,988 93,565 -208,940 -187,234 -297,305 -442,470 -343,389 -737,773 -1048,1146 l -2127,2263 c -72,74 -73,93 -136,168 -50,59 -95,98 -150,153 -126,123 -177,238 -312,329 z m 10974,-5368 2160,1419 c 137,79 217,142 384,224 152,75 253,139 394,214 l 0,371 c -144,-12 -303,-150 -420,-222 -555,-341 -1470,-933 -1989,-1219 -655,-362 -529,-365 -529,-787 z m -17897,0 c 362,191 718,385 1081,574 l 3242,1789 0,473 -4323,-2464 0,-372 z m -2431,68 c 142,75 297,127 439,202 -28,119 -34,111 -34,270 -181,-42 -394,-187 -574,-202 41,-177 85,-145 169,-270 z m 16208,-473 2195,979 c 0,255 34,423 34,709 -673,-356 -1295,-599 -1925,-911 -102,-50 -182,-107 -304,-136 l 0,-641 z m 27926,1992 c -87,-800 -104,-269 1114,-1080 l 787,-564 c 90,-72 182,-161 260,-213 102,68 273,174 337,270 l -601,412 c -220,131 -403,249 -629,384 -224,134 -409,259 -625,387 l -643,404 z M 50150,18830 c -128,35 -964,570 -1141,682 -366,231 -799,481 -1150,742 l -748,501 0,-372 1540,-992 c 264,-175 501,-358 756,-527 150,-99 607,-492 777,-506 -3,153 -34,265 -34,472 z m -28938,-708 c 0,200 -31,289 -34,438 -96,-51 -148,-75 -236,-135 55,-82 190,-250 270,-303 z m 37177,33 c 144,34 3034,2064 3465,2343 293,189 216,184 216,628 l -2236,-1546 c -162,-108 -293,-207 -459,-317 -168,-112 -805,-567 -952,-601 0,-164 16,-396 -34,-507 z m -35219,-337 3749,2025 c 205,91 382,169 574,270 l 0,608 c -188,-99 -691,-486 -1025,-664 l -3298,-1834 0,-405 z m 6923,5098 c 0,-536 -96,-553 294,-955 60,-61 98,-90 150,-155 l 1033,-1161 c 436,-469 1133,-1321 1572,-1838 l 1340,-1530 c 0,656 180,712 -210,1107 l -1673,1771 c -357,361 -1048,1223 -1383,1554 -247,243 -938,1082 -1123,1207 z m 17052,-2938 0,-405 c 131,-35 2535,-1656 2825,-1901 100,-84 69,-91 214,-124 l 0,438 c -248,132 -511,330 -756,493 l -2283,1499 z M 36947,17683 c 259,60 810,338 1100,453 254,101 893,411 1095,458 l 0,236 c -158,-36 -1249,-552 -1419,-641 l -563,-281 c -265,-126 -209,-81 -213,-225 z m 4019,-68 c 91,25 284,161 386,222 l 2686,1702 c 0,196 -33,281 -33,507 -172,-46 -1624,-1080 -1864,-1243 l -1142,-783 c 0,-147 12,-303 -33,-405 z m 17423,-709 c 95,50 139,85 230,142 88,55 141,78 229,142 158,115 275,194 440,304 357,238 2589,1776 2714,1809 l 34,878 -3647,-2633 0,-642 z m -6111,3207 0,-270 c 358,-240 1390,-1080 1804,-1403 l 1741,-1466 c 0,196 22,260 34,405 -153,102 -298,206 -454,323 l -1351,1012 c -95,71 -113,101 -201,170 l -1573,1229 z m -5133,-945 0,-304 c 264,-61 1584,-1090 1925,-1350 137,-105 232,-196 363,-312 l 751,-600 0,608 -2276,1472 c -133,89 -233,159 -364,243 -131,84 -269,174 -399,243 z M 36947,16535 c 142,33 1394,679 1632,799 198,99 351,187 529,281 l 0,574 c -518,-274 -1608,-721 -2161,-1013 l 0,-641 z m -13844,337 c 89,47 181,89 270,135 l 540,305 c 98,51 186,87 290,149 l 2164,1212 c 105,58 146,91 258,147 239,118 695,409 868,449 l 0,541 -3804,-2072 c -199,-101 -382,-177 -552,-292 0,-244 -34,-338 -34,-574 z m 41500,608 c 0,-214 -30,-88 244,-363 107,-107 215,-192 296,-312 59,40 162,114 202,169 l -742,506 z m -34510,4085 c 0,-202 1,-406 -1,-608 -4,-338 -24,-269 161,-447 213,-207 398,-397 608,-608 l 1789,-1856 c 192,-192 439,-409 607,-610 114,-136 163,-194 288,-319 110,-109 195,-194 304,-304 222,-221 458,-569 633,-616 0,968 49,412 -920,1511 l -878,945 c -56,55 -100,94 -150,154 -313,373 -736,782 -1013,1114 l -840,983 c -123,156 -449,568 -588,661 z m 10805,-4929 c 117,31 291,171 399,243 l 2329,1519 c 142,96 276,172 412,264 l 0,439 c -94,-26 -116,-57 -196,-108 -72,-46 -114,-63 -189,-115 l -2721,-1769 c 0,-167 20,-360 -34,-473 z m 11380,2802 c 0,-436 162,-342 548,-734 l 1132,-1030 c 270,-274 589,-519 894,-827 96,-97 129,-123 233,-206 193,-154 468,-511 671,-646 0,743 211,435 -362,921 l -2869,2364 c -112,95 -84,120 -247,158 z m -19788,-2937 0,0 z m 34,-34 -34,34 34,-34 z m 67,-34 -67,34 67,-34 z m 34,-33 -34,33 34,-33 z m 31809,-135 c 101,68 273,173 337,270 -64,96 -173,171 -270,236 0,-192 -62,-326 -67,-506 z m -31809,135 c 59,-89 17,-70 135,-102 -59,89 -17,70 -135,102 z m 25731,-304 c 263,-139 282,-199 439,-304 156,83 235,158 384,257 599,395 1344,973 1938,1371 76,50 130,83 204,134 l 614,399 67,1013 c -162,-110 -298,-224 -463,-348 l -2868,-1993 c -61,-37 -214,-121 -245,-161 -31,-40 -10,3 -33,-68 l -37,-300 z m -11211,2262 c 11,-495 86,-386 612,-806 l 1598,-1239 c 123,-93 704,-589 829,-622 l 0,574 -3039,2093 z M 23238,15860 c 101,27 374,250 486,324 673,451 1918,1051 2677,1476 192,107 370,175 562,282 166,93 375,237 563,281 l -33,810 -2466,-1485 c -528,-284 -1350,-844 -1924,-1148 0,-323 -114,-374 135,-540 z m 13709,33 1588,844 c 178,88 365,178 540,270 l 0,237 c -184,-97 -328,-199 -518,-293 -189,-94 -341,-185 -519,-292 -356,-214 -727,-371 -1091,-563 l 0,-203 z m 3883,-202 c 113,26 1034,601 1218,707 140,80 272,160 405,236 274,157 545,313 811,473 265,159 536,330 808,474 l 0,676 c -110,-30 -299,-173 -396,-246 l -2812,-1881 c 0,-202 -29,-287 -34,-439 z m -17086,-338 1911,1027 c 230,138 1745,995 1905,1033 0,264 -34,412 -34,641 l -2534,-1484 c -174,-101 -354,-170 -532,-278 -107,-66 -172,-77 -275,-131 -215,-111 -599,-348 -846,-369 30,-113 95,-147 177,-228 81,-80 139,-151 228,-211 z m 6382,4490 c 0,-1193 49,-957 346,-1240 l 1492,-1210 c 215,-168 398,-299 613,-467 l 1872,-1370 c -5,217 -74,162 -212,295 -108,103 -187,153 -287,253 l -3824,3739 z m 29310,-4524 c 123,33 1229,853 1378,952 1081,719 1087,537 1087,1243 l -670,-478 c -152,-114 -1963,-1453 -2065,-1480 65,-97 173,-172 270,-237 z m -12223,2060 c 12,-570 73,-464 544,-840 l 1988,-1557 c 137,-104 306,-277 405,-304 l 0,709 c -126,33 -932,615 -1090,733 l -1847,1259 z M 36981,14914 c 693,367 1401,714 2094,1081 l 0,607 c -91,-21 -439,-218 -534,-276 -544,-331 -946,-505 -1594,-939 0,-169 34,-261 34,-473 z m -4221,1384 c 80,-118 268,-252 396,-347 194,-144 1168,-970 1293,-1003 l 0,236 c -130,87 -1585,1087 -1689,1114 z m 27352,-1485 c 140,94 277,208 424,318 l 1298,965 0,439 c -226,-151 -991,-808 -1466,-1135 -144,-99 -372,-309 -527,-351 36,-134 133,-204 271,-236 z m -7801,3005 c 147,-631 -231,-121 684,-937 75,-67 146,-121 224,-182 87,-69 133,-114 221,-184 l 1351,-1114 c 150,-118 814,-735 897,-757 0,197 34,236 34,405 -130,87 -291,219 -414,329 l -2769,2262 c -64,60 -160,132 -228,178 z M 40763,14543 c 361,191 1300,848 1682,1087 150,94 272,170 412,263 143,96 284,177 432,277 940,635 838,325 776,1039 -138,-76 -241,-156 -384,-249 l -2034,-1276 c -145,-92 -271,-162 -422,-252 l -428,-248 c 0,-257 -34,-376 -34,-641 z m -14790,34 c 163,38 270,133 405,202 l 799,417 c 153,74 276,117 417,191 l 0,304 c -96,-26 -122,-67 -210,-128 -78,-55 -126,-93 -196,-142 l -1215,-844 z m 0,0 -68,-34 68,34 z m 34738,-380 c 259,141 516,337 765,501 209,138 230,85 268,373 18,136 56,425 56,586 -213,-112 -1099,-900 -1418,-1114 l 329,-346 z m -23730,-93 c 140,37 387,217 513,297 172,111 333,195 507,304 l 1040,614 0,304 c -170,-90 -342,-161 -517,-259 l -1543,-821 0,-439 z m -11076,439 0,0 z m -101,-68 10,10 c 0,0 -13,-6 -10,-10 z m -169,-101 10,10 c 0,-1 -13,-7 -10,-10 z m 21645,2093 c 0,-466 -109,-384 507,-844 258,-193 496,-387 761,-589 109,-82 1475,-1108 1568,-1133 0,114 -3,223 8,336 24,239 2,162 -451,504 l -1981,1429 c -153,102 -272,204 -412,297 z m 5065,642 c 4,-190 28,-134 361,-416 157,-132 271,-248 435,-375 l 647,-569 c 379,-368 1039,-902 1469,-1333 l 397,-413 0,337 c -193,103 -256,196 -419,324 -91,70 -117,101 -203,168 -563,441 -1656,1419 -2258,1929 l -429,348 z M 34449,14678 c -127,34 -429,263 -561,351 -1141,760 -1634,1190 -2691,1969 l -1003,853 c 0,-435 -171,-327 192,-618 l 3001,-2401 c 103,-81 151,-131 261,-212 116,-85 166,-137 280,-227 l 554,-458 c 0,245 -33,453 -33,743 z m 6280,-912 c 155,42 1044,662 1264,796 164,101 273,178 435,274 l 1678,1091 0,506 c -150,-79 -268,-186 -419,-290 -154,-106 -252,-191 -412,-297 l -622,-425 c -80,-53 -132,-94 -216,-155 l -1708,-1128 0,-372 z m 20260,135 c 176,-117 141,-67 399,108 236,161 217,138 249,258 11,44 16,88 28,141 -133,-36 -370,-250 -522,-356 -161,-113 -82,-57 -154,-151 z m -33395,439 0,743 c -113,-26 -185,-72 -277,-128 l -1715,-919 c -100,-49 -207,-83 -304,-135 101,-151 271,-369 462,-298 372,138 1493,709 1834,737 z m 30660,-776 c 134,71 249,154 372,236 -136,203 -178,203 -338,203 0,-268 -30,-310 -34,-439 z m -21273,-135 c 142,33 1703,925 2060,1114 l 0,371 -1074,-682 c -97,-64 -162,-110 -263,-176 -628,-411 -723,-331 -723,-627 z m 10299,2093 c 0,-188 -22,-233 -34,-371 63,-43 112,-78 178,-126 l 1954,-1456 c 187,-139 539,-458 705,-545 l 0,574 c -756,399 -1454,899 -2137,1408 l -666,516 z m -17120,1317 0,-271 2716,-2044 c 411,-309 1284,-1049 1606,-1264 l 0,304 c -199,105 -368,251 -554,390 -194,145 -346,269 -536,411 l -2128,1653 c -88,71 -1014,797 -1104,821 z m -2566,-2971 0,337 c -126,-66 -282,-119 -430,-178 l -1326,-564 c 26,-99 67,-130 144,-195 240,-204 296,-56 689,138 317,157 621,302 923,462 z m 13068,-1250 c 101,28 132,68 212,126 l 2388,1563 c 133,88 298,194 439,270 158,85 314,186 472,270 l -67,742 -1008,-714 c -487,-340 -1062,-657 -1511,-954 l -892,-526 c 0,-281 -33,-468 -33,-777 z m -13879,0 c 276,146 534,326 811,473 l 0,405 -586,-258 c -154,-78 -448,-248 -596,-282 59,-88 86,-107 168,-169 71,-54 136,-110 203,-169 z m 10164,-67 2094,1350 0,237 -1720,-1015 c -301,-181 -374,-96 -374,-572 z m -6787,3376 c 0,-322 -69,-225 420,-593 l 853,-700 c 99,-84 180,-147 272,-235 l 694,-588 c 68,-58 81,-57 150,-121 l 541,-472 c 67,-60 83,-59 151,-119 55,-48 82,-85 135,-135 63,-59 73,-57 132,-104 225,-181 797,-731 974,-849 0,448 71,767 -113,900 l -4209,3016 z m 27993,-3410 c 141,95 893,702 1047,743 -31,45 -287,269 -338,304 -649,-435 -709,-426 -709,-1047 z m -5842,2937 c 0,-509 -256,-221 600,-919 l 2642,-2187 c 31,377 156,294 -338,676 l -1646,1393 c -81,72 -127,97 -203,168 -92,86 -115,111 -215,190 l -608,506 c -97,79 -107,140 -232,173 z m -24751,-3409 0,675 -540,-271 c 56,-76 439,-351 540,-404 z m 13068,-304 c 164,38 2425,1605 2681,1776 l 898,587 c 0,205 -34,246 -34,439 -291,-154 -466,-314 -708,-473 l -2580,-1776 c -285,-187 -257,-117 -257,-553 z m 17660,270 c 132,30 543,298 698,383 254,138 448,301 687,427 l -162,177 c -99,-70 -213,-174 -307,-249 l -607,-473 c -115,-85 -233,-152 -309,-265 z m 0,0 -67,-34 67,34 z m -67,-34 0,0 z m -5943,2633 -41,-539 c 158,-41 1608,-1168 1686,-1226 l 1596,-1307 c 0,196 22,260 34,405 l -2860,2340 c -151,122 -259,223 -415,327 z M 36914,11707 c 158,37 1349,865 1560,1006 177,118 350,248 533,344 l 0,473 c -114,-30 -57,-20 -150,-86 l -1850,-1324 c -87,-87 -93,-254 -93,-413 z m 10434,-68 -61,75 c 16,-95 -19,-45 61,-75 z m -102,1722 0,-405 c 172,-14 537,-354 689,-459 123,-84 214,-159 329,-245 l 1717,-1254 0,473 c -145,39 -2609,1857 -2735,1890 z m 102,-1722 c 56,-84 260,-240 371,-270 -56,84 -261,241 -371,270 z m 371,-270 c 50,-72 5,-44 101,-67 -50,72 -5,44 -101,67 z m -13243,202 c -192,106 -1420,1134 -1625,1307 l -1335,1096 c -96,77 -190,142 -283,224 -138,121 -940,812 -1107,851 0,-548 -11,-314 363,-650 102,-91 180,-140 284,-223 l 2884,-2348 c 201,-157 710,-650 859,-729 l -40,472 z m 13378,-303 -34,34 34,-34 z m -7260,-405 2269,1546 c 195,130 1378,895 1378,952 0,225 -34,292 -34,507 l -3613,-2566 0,-439 z m 7260,405 c 51,-73 5,-44 101,-67 -50,72 -5,44 -101,67 z m 135,-101 -34,34 34,-34 z m 0,0 c 51,-73 5,-45 101,-68 -50,73 -4,45 -101,68 z m -11109,-338 c 190,101 1932,1118 2060,1148 0,286 33,445 33,743 -108,-58 -176,-115 -283,-189 l -1754,-1252 c -56,-90 -56,-307 -56,-450 z m 15330,2634 c 4,-183 71,-181 342,-401 l 2505,-2053 c 155,-125 272,-244 428,-349 l 0,439 -1607,1195 c -256,177 -1508,1126 -1668,1169 z m -4086,-2397 -34,33 34,-33 z m 0,0 c 51,-73 5,-45 102,-68 -51,73 -5,44 -102,68 z m 135,-102 -33,34 33,-34 z m 0,0 c 51,-72 5,-44 102,-67 -51,72 -5,44 -102,67 z m -18166,2971 c 0,-216 45,-216 187,-319 416,-302 997,-833 1404,-1162 753,-607 1784,-1555 2524,-2102 131,-97 161,-154 308,-232 l 0,507 c -98,26 -449,310 -555,390 -104,78 -160,130 -265,208 l -3037,2297 c -98,82 -169,123 -273,201 -120,90 -163,143 -293,212 z m 22117,-1148 c 0,-643 -66,-485 281,-766 l 2203,-1741 c 74,-21 423,131 521,178 l -2802,2194 c -83,66 -98,107 -203,135 z M 36846,9985 c 125,11 1216,583 1520,742 91,48 145,89 235,136 89,47 182,88 271,135 0,249 34,403 34,608 -106,-56 -173,-93 -281,-158 l -574,-338 c -116,-65 -179,-118 -293,-180 -193,-103 -382,-225 -572,-339 -321,-192 -340,-101 -340,-606 z m 3681,-67 930,690 c 166,125 302,217 469,342 166,125 302,219 467,343 l 950,670 c 175,117 315,211 486,325 579,385 494,189 439,735 l -3708,-2599 c 0,-225 -33,-292 -33,-506 z m 11683,1688 c 12,-146 -59,-46 188,-217 93,-65 170,-126 251,-188 369,-282 1069,-880 1317,-1250 97,23 257,93 338,135 -81,120 -846,645 -1019,772 -194,143 -897,706 -1075,748 z m -34,-743 c 0,-214 -30,-348 -34,-506 l 912,-743 c 210,0 332,151 540,169 -29,111 -57,106 -138,165 -235,170 -1136,877 -1280,915 z m -3815,34 c 59,-89 629,-502 777,-608 78,-56 100,-91 182,-155 l 594,-453 c 0,228 -25,145 -314,362 -205,154 -1129,824 -1239,854 z M 31612,9715 c -38,52 -138,126 -198,173 l -864,690 c -98,73 -134,116 -221,184 -140,109 -291,238 -439,337 -42,-180 -68,-314 -68,-540 91,-24 317,-158 428,-214 228,-114 1185,-615 1362,-630 z m 0,0 0,0 z m 15668,1452 c 0,-448 94,-352 502,-680 l 707,-508 c 114,-77 1298,-1016 1391,-1040 l 0,405 c -105,28 -812,554 -960,661 -124,89 -211,150 -337,237 -156,107 -1162,887 -1303,925 z m 4727,-1925 c 259,6 375,150 608,169 -68,102 -423,360 -540,439 0,-116 -39,-543 -68,-608 z m -11548,-303 2458,1796 c 182,123 324,246 507,371 l 986,736 c 0,126 -29,393 -68,473 -119,-32 -1807,-1356 -1910,-1433 -334,-250 -635,-477 -955,-733 -167,-133 -827,-662 -984,-704 0,-225 -34,-292 -34,-506 z m -3681,67 2026,1047 c 0,337 34,434 34,574 l -1758,-977 c -120,-62 -152,-60 -268,-138 0,-169 21,-392 -34,-506 z m -6821,2768 0,-270 c 234,-156 1031,-853 1273,-1057 151,-126 270,-235 421,-356 147,-119 265,-236 419,-357 146,-114 285,-260 419,-358 135,-98 379,-167 546,-230 196,-73 399,-160 603,-207 l -2730,2131 c -131,105 -805,671 -951,704 z m 68,676 0,-237 c 362,-242 3266,-2566 3605,-2912 105,-107 168,-141 270,-235 207,-192 262,-368 616,-398 l 0,271 c -199,133 -385,254 -579,400 -199,149 -376,282 -579,434 l -2528,1963 c -100,79 -160,166 -260,246 -226,181 -408,431 -545,468 z m 17289,-2026 c 0,-143 -25,-328 18,-454 42,-119 134,-151 265,-241 l 1174,-853 c 65,-47 557,-444 569,-444 210,0 302,97 506,101 -14,174 -341,353 -574,507 -226,150 -425,295 -662,452 l -1296,932 z M 36778,8331 c 244,56 1742,1056 1993,1114 l 0,236 -1488,-808 c -81,-48 -153,-78 -246,-125 -111,-56 -159,-94 -259,-147 l 0,-270 z m 10570,1181 c 0,-206 -62,-633 15,-725 37,-44 190,-122 248,-159 91,-58 155,-104 238,-167 113,-85 346,-298 498,-287 l 689,157 -1688,1181 z m -6956,-1755 762,554 c 62,47 68,61 130,107 l 641,473 c 780,560 1841,1405 2586,1904 l -67,743 c -79,-21 -1313,-1052 -1467,-1167 l -2552,-1871 -33,-743 z m 6922,641 0,-439 c 143,12 368,70 506,102 -55,76 -402,310 -506,337 z M 37049,8027 c 463,-108 391,-105 1045,272 127,73 534,340 643,369 0,194 30,258 34,406 -81,-19 -1554,-901 -1722,-1047 z m 844,-169 c 279,0 525,-101 844,-101 l 0,641 -844,-540 z m 2769,-304 c 246,-57 313,-33 607,-33 74,0 320,223 396,279 146,109 260,195 405,304 l 800,584 c 430,298 1219,957 1607,1162 0,245 34,375 34,642 -178,-42 -800,-607 -956,-733 L 41415,8118 c -95,-71 -166,-110 -255,-184 l -498,-380 z m 2870,-33 945,41 0,668 c -158,-106 -321,-224 -472,-338 -120,-91 -401,-264 -473,-371 z m -743,-34 c 405,0 309,43 883,467 136,101 259,180 395,281 l 410,265 0,337 c -88,-23 -154,-86 -226,-145 l -1048,-842 c -126,-113 -333,-242 -414,-363 z m -912,0 c 618,0 420,-57 1073,480 107,88 197,148 304,237 l 1223,903 0,372 c -613,-411 -1634,-1246 -2286,-1732 -102,-76 -253,-169 -314,-260 z M 3788,29398 c 15,174 224,477 304,641 l 878,1958 c 278,0 1099,-302 1389,-401 877,-297 1797,-533 2641,-938 407,-195 892,-484 1373,-484 134,0 491,111 566,177 l 2511,2384 c 85,67 120,122 212,193 l 604,510 c 1118,901 2227,1816 3400,2644 l 2422,1732 c 1023,771 2115,1430 3240,2060 169,95 321,159 496,248 l 1766,867 c 2128,1023 5309,2160 7455,2777 3394,975 6788,1668 10487,1668 l 17,0 c 370,0 1235,-17 1545,-58 259,-35 492,-26 749,-62 804,-113 1258,-159 2104,-327 1706,-339 3402,-841 5001,-1482 189,-76 371,-156 570,-241 l 2215,-1026 c 197,-99 348,-192 529,-282 189,-93 342,-176 530,-280 l 2570,-1481 c 347,-210 658,-404 1009,-612 1105,-655 3322,-2179 4347,-2980 912,-712 1855,-1382 2759,-2103 l 676,-540 c 87,-70 117,-111 217,-188 381,-297 731,-615 1069,-956 96,-97 142,-119 237,-203 l 3410,-3477 c 800,-901 1702,-1953 2299,-2969 l 327,-517 c -164,-244 -389,-448 -582,-667 l -691,-795 c -60,-83 -24,-62 -75,-128 -47,-62 -156,-125 -231,-207 l -1400,-1571 c -81,-81 -141,-137 -221,-218 -87,-88 -105,-134 -185,-221 -75,-81 -140,-140 -220,-219 -282,-282 -558,-571 -862,-825 l -3967,-3698 c -89,-79 -129,-95 -219,-186 l -2123,-1726 c -168,-126 -308,-241 -478,-367 l -3556,-2420 c -619,-406 -1449,-878 -2106,-1271 L 55193,9197 53718,8545 C 52574,8034 51179,7523 49974,7190 48074,6665 46301,6250 44315,6029 40372,5591 36401,5932 32739,7128 31170,7640 29420,8241 28039,9080 l -1190,701 c -1032,613 -2379,1597 -3297,2375 l -508,437 c -92,82 -168,132 -254,219 -389,396 -850,729 -1250,1114 l -717,700 c -49,50 -77,75 -121,117 l -34,32 c -5,5 -13,12 -18,16 l -1015,1045 c -92,109 -117,149 -221,251 l -457,490 c -1036,1118 -2285,2681 -3134,3955 l -379,567 c -133,199 -251,364 -384,561 l -790,1101 c -76,102 -129,167 -203,270 l -1861,2426 c -143,191 -256,354 -400,546 -222,294 -417,492 -611,807 -252,410 -1138,685 -1569,828 -240,79 -455,163 -701,245 -229,76 -463,173 -706,239 -354,97 -736,247 -1096,322 -875,183 -1708,483 -2563,747 -200,62 -560,189 -772,207 z"
         class="fil0" /></g></g><metadata
     id="metadata4142"><rdf:RDF><cc:Work
         rdf:about=""><dc:title></dc:title><dc:format>image/svg+xml</dc:format><dc:type
           rdf:resource="http://purl.org/dc/dcmitype/StillImage" /></cc:Work></rdf:RDF></metadata></svg>